{
  "G_CONFIG": {
    "admin_username": "admin",
    "admin_password": "admin",
    "render_name": "w.w",
    "site_name": "SpritUI",
    "site_title": "SpritUI",
    "site_icon": "https://linik.gitee.io/imges/SpritUI.png",
    "site_keywords": "SpritUI",
    "site_description": "SpritUI",
    "site_script": "",
    "site_readme": "onepoint v1.3.5-20200701\n\n新增 context模块调用参数, 提供了保存配置的api\n\n新增 onedrive_graph 每隔 30 天自动更新一次 refresh token\n\n优化 缓存结构\n\n优化 w.w主题, 数据格式化放到前端由js实现",
    "proxy": [
      "https://proxy.kamiui.ml"
    ],
    "access_origins": [
      "http://localhost:8080",
      "https://ukuq.github.io",
      "https://www.onesrc.cn"
    ],
    "x-nowsh-token": "fbpnNAPDttnPJVCWB63N1PdM",
    "x-valine-enabled": false,
    "x-valine-appId": "Bh93jkqeJWvTCoF3qWzT9nUH-MdYXbMMI",
    "x-valine-appKey": "hGoSrlB0k9gc88kXr5RmzXay",
    "x-scf-cos-enabled": false,
    "x-scf-cos-secretId": "",
    "x-scf-cos-secretKey": "",
    "x-scf-cos-bucket": "",
    "x-scf-cos-region": "ap-hongkong"
  },
  "DRIVE_MAP": {
    "/": {
      "funcName": "onedrive_graph",
      "spConfig": {
        "root": "",
        "refresh_token": "OAQABAAAAAAAGV_bv21oQQ4ROqh0_1-tAPQGTa19nJCfFbihEzqe66M7NFMsRDCZW7yNCXbCzMpQUEHK0XQd9cLILGgxhAxxpam3Z9XgHdN4WvI_0vsrXM09QEDF4IT2ki2snY8bIWRh5_mhtec5y0pZBvm9kZj0j_rXTHGmi29VCfVy4sBG21_FMTJ5JpDfMHIe4fuhsZjbOa24c0GoYQRMrVNQDQUnfUdudZxq-nvVyyvYzoR2jbBicr9Yc6oskP3VlTuIpjf0FVbaqiFi3jpz_YugAxPc4IPpjY_Zyvo2IazkYbUvAdtr2-xOuO2r0XC-NrBCY2NxFTaAA1ehWUn0RF9-Gf7YZdaB-4rJl4iFTqmnk5FzJzNdJBrlzv02JypS_SOt-HgF45XyzB9FVfvrqqK0NEbGTKVIET3a8lxf2H-R2RrXwGMwhuKHNbDU9eGBwtSv3Dsx-8H4P45OBjRHi0VkHq5REAlSD_hDHRItFKvkIo-NHGAJa_qpA5YneESCF1vC5Ku8_JvNT74NzhFP7p23xiamDJBjUNZY5XBcAZK1x-LE44CIKhWB1vA0qxWzBn-zIoUzTJC0WVpuLDBWOg5a2YQWlpjQVsto8zsu20SNimf1pTpzbOfwoInEBjWHSZjvRRkeG6rbw6b5WwIylutLLzz2X5wflGRHnEWYcVnCU3qdJlW_tmLi_kQ3N-h63WJ6hD1s82X-h-T0C4SODhMMInuaR3htJZK9x0n9fCJeIFq513S9Kr5eeBTuxRHtqO-3JfwvqwAdCXHfV-PMNra0jfvoM3syNdYtrk0S8xvX_7h5WmH9h6K4NfRa_fAaGojsI0qSKyDGtoHORNAnWbdH_P6u0pXx2mgzFW9b8xrlOSeUNGGszaYmqPWsfyi4txqmfekW3W543KMBIBkydlJ39G4t2FdoXCFBXUcfapUZ18H7eiCAA",
        "oauth": 0,
        "expires_date": 1597821072737
      },
      "password": "",
      "isNew": true
    }
  },
  "DOMAIN_MAP": {
    "::ffff:127.0.0.1": {
      "ph": "",
      "p0": ""
    }
  }
}